D+
B-
B+
A
A-
C+
B-
B
A-
B+
C
C
B+
A-
B-
C+
A
A
B-
A
B+
B+
B-
B+
B+
A
B-
A-
D+
A
B+
A-
B-
B+
B+
B+
B+
A
A
C+
C+
B+
D+
F
C-
A
A
B+
B+
B+
B+
B+
B+
B-
A
A
B+
D+
D+
B+
B+
D+
C+
B+
B+
A
A
B+
B+
D-
B+
B+
C
B+
B+
B+
B+
B-
B-
B+
B-
B+
B-
F
A
B+
B+
A
B+
D+
C+
A
B+
B+
B-
B-
F
A-
B-
A
C
D+
B+
B+
A
A
A-
A-
A
A
B+
C+
A
D+
B+
B+
B+
A
A
A-
B-
A
B+
A
B+
B+
B+
B+
A
A
B+
A
B+
A
B+
B
B+
A
B+
B+
B+
B+
B+
B-
B+
D+
B+
A-
B+
B+
B+
F
A
B+
B+
A
B+
A
B+
B+
B+
C+
D+
B+
B+
F
D+
B+
A
A
B+
A-
B+
B+
B-
B+
B-
B+
A
B+
B-
D+
B-
B+
B
B+
B+
C-
B+
B+
B-
B+
B+
B-
B+
B+
B+
B+
B+
D+
D+
B+
B-
C
D+
B+
C+
A
A
C+
B+
B+
B+
B+
C+
B+
B+
B+
A
D+
A
A
B+
A-
A
B+
B+
B+
D+
D+
C+
A
B+
B+
B+
B+
A
B-
B-
B+
B+
B
A
B+
B+
B+
B+
B+
B+
B+
B-
B-
B-
B+
C+
A
B+
B-
B+
