F
D-
D
F
F
F
F
D-
F
D-
F
F
F
F
D+
F
F
F
F
F
F
F
F
F
F
F
D-
F
F
F
F
D
C-
F
F
D-
C-
F
F
D
F
D-
D-
D-
F
D-
D+
C-
F
D
F
F
D-
F
D-
D
F
D
D-
C
D+
D
F
D-
D-
F
C
F
F
F
F
D-
F
F
D-
F
F
D+
F
D
F
F
D+
F
F
C-
F
F
D+
D-
D+
F
D+
F
C-
F
D-
F
F
F
C+
F
F
D+
C-
D+
D+
F
D+
D-
F
F
D-
D+
F
F
C
F
F
F
C+
F
C-
D-
F
F
F
F
F
D+
C-
F
F
F
F
D-
F
F
F
F
F
F
F
F
F
F
F
F
D+
F
D+
D-
F
D-
C-
F
F
F
D-
D-
F
D+
F
F
F
D
D-
D-
F
C-
F
D-
F
F
F
F
F
F
F
D-
D-
D
D-
D-
D-
F
D
F
F
F
F
F
C+
F
D+
D-
F
F
F
F
F
F
F
F
F
D-
F
D+
F
B-
F
F
F
D-
D-
F
C
D-
F
F
F
F
F
D
F
F
F
D-
F
F
D
F
F
F
D-
C-
F
D-
D-
D
C-
F
C-
F
D-
F
D+
F
D
F
F
F
F
F
F
D
