B+
A
C+
C+
D+
A
B+
A-
B-
B+
B
B+
B+
B+
B+
A
A
B+
B+
B+
A-
B+
A-
B-
B-
A
A
C+
B+
D+
B+
A
B+
D-
B+
A
A
B+
B+
A
A
A-
B+
C+
B+
B+
B-
A
A
B+
A-
B+
A
B+
A
A
B+
B+
A
B
B+
B+
A
B-
A-
A
C
B-
B+
B+
C+
B
B+
A
D+
A-
B+
C
B+
B+
B+
A
C+
A
A
B+
B-
D+
B+
B+
B+
B+
B+
B+
A
A
C
C+
B-
B-
B+
B+
B-
A
B+
B+
B+
B+
D+
B+
A
C-
B-
B+
B-
A
B+
A
C+
B+
B-
B+
B-
B
B
B+
D+
B+
A
D+
B+
A
A
B+
B+
D+
B+
B+
B+
A
B+
A-
B+
B+
A
A
C+
C
A-
A
B+
B+
B-
B-
D+
A-
B
A
B+
B+
A
B+
B+
B-
B-
A
B+
B+
B+
B+
A
B+
B+
B+
B+
B-
F
A
B+
B+
B+
A
B+
B+
C+
D+
A-
B
A
C
B+
B+
B+
A
D+
A
B+
B+
D+
B
