F
A
A
A
D+
B+
B+
B+
B-
B+
A
D+
B+
A-
B
B+
B+
B-
B+
C+
A
D+
B-
A
B+
A
A
B+
B+
D-
A
B+
B+
B+
A
B+
A
B+
B+
C+
A
B+
A-
B+
B
A
A
B-
C+
B+
B+
C-
B+
B+
A
A
C-
B+
A
B+
A
A
C+
B+
B
B+
B
B
A
B+
B+
B+
B+
A
D+
A
A
B+
D+
B+
B-
B-
B+
C+
D+
B+
D+
B-
A
B+
A
B-
B+
B+
B+
A-
B+
B+
F
B+
C+
B+
B+
F
A-
A
A
B+
B+
B+
C+
D+
D+
A
B+
B-
D+
B+
B+
A
B
B-
A
B+
A
B+
D+
B+
B+
B
B
B+
A
B+
B+
B+
D+
B+
B-
B+
B-
B+
F
B+
D+
B
B+
C+
C+
D+
B-
B-
B+
A
A
D+
C
A
B+
D+
B+
A
A
B-
A
B+
D+
A-
F
B+
A
A
C+
A
A
C
A
A
A
B-
B+
A
D+
A
B+
B-
B+
B+
B+
D+
B-
A
B-
A
A
B+
D+
B+
B+
B+
B+
A
B+
A
B+
B+
A
B+
B+
